{
  "Gemfile": "355971e45970f0d43eec7239da700f36",
  "LICENSE": "4af37e701e8f3e94c2de463993264b10",
  "Puppetfile": "ccc44c05543bf87aeba51c707fd77652",
  "Puppetfile.lock": "3baac91dff3f42b6afec9a09df4cf36a",
  "README.md": "bf9ea861e17bd064b51186fb15eca5d2",
  "Rakefile": "2d3ffd46dec98cd7d03763865554bc6f",
  "Vagrantfile": "b57dbddb6ea793a7d5314d465e7d41ea",
  "manifests/build.pp": "b5d1982e7dc941a33ac3bd40087a31fd",
  "manifests/deps/debian.pp": "f45dbbcd1d58d9d4ecf3bd340370d7c1",
  "manifests/deps/redhat.pp": "98f8fc1a8f3f1e402c5f85e10b9397ba",
  "manifests/deps/suse.pp": "540a4a6c33948db2a0a78e3a164d02bf",
  "manifests/deps.pp": "91e984628dc5d3b32475f7caa3cea8f9",
  "manifests/gem.pp": "225b0cab1e9d2137d81b7d5266a65eb0",
  "manifests/init.pp": "29f9695e4adb42ed1f5736c9f6d7e3f1",
  "manifests/plugin.pp": "d2d5b5de75cbc01e05612b81e7df158e",
  "metadata.json": "7864961d23157bb7435d5cf422f21208",
  "spec/classes/coverage_spec.rb": "5b6dfa0dd426aca0ccfae23c0a629f0b",
  "spec/classes/rbenv_spec.rb": "9ebd575c589550b0d97c3f37c5d1bfc8",
  "spec/defines/build_spec.rb": "f9a6d85847028389a177d1110c9bf755",
  "spec/defines/gem_spec.rb": "6f47638d4b2a481359b50a5630f1f1f9",
  "spec/defines/plugin_spec.rb": "1bfc043ade92dd4a067da4213cc74fe0",
  "spec/spec_helper.rb": "0db89c9a486df193c0e40095422e19dc",
  "templates/rbenv.sh": "709dcbed051213c8f024a72e6052ba6d",
  "tests/build.pp": "bd00d8228efe2c06a1303fe6001951dc",
  "tests/gem.pp": "50c8822cccc778c8ed280337a327dfe3",
  "tests/init.pp": "512d340956c5a450ad97b94c79ffc361",
  "tests/plugin.pp": "4543e80104e06fe40d8c2cd68f416300",
  "tests/rbenv-vars.pp": "2fb09070c0c8cb0965ecb65bbb8e1e47",
  "tests/vagrant/centos.pp": "1e81400d274864641a1cc9207e7cda8d",
  "tests/vagrant/ubuntu.pp": "97ec4a65faffe8b6bc60a66bbc5aee5f"
}